<svg width="30" height="30" viewBox="0 0 30 30" fill="none" xmlns="http://www.w3.org/2000/svg">
<g clip-path="url(#clip0_9228_5389)">
<path d="M29.3511 13.9844C29.237 13.6033 28.9762 13.2832 28.6261 13.0944C28.2759 12.9056 27.8651 12.8636 27.484 12.9777L14.0723 16.9906C13.9978 17.0129 13.9295 17.0521 13.8729 17.1053L12.2432 18.6362C12.1756 18.6998 12.1271 18.7809 12.1031 18.8705C12.079 18.9601 12.0803 19.0546 12.1069 19.1435C12.1334 19.2324 12.1841 19.3121 12.2534 19.3738C12.3226 19.4355 12.4077 19.4768 12.499 19.493L14.7049 19.8777C14.7814 19.8911 14.8599 19.8865 14.9343 19.8644L25.8173 16.6085L25.864 17.6382L22.4061 18.6732L22.6929 19.6315L26.5249 18.4844C26.6311 18.4518 26.7235 18.3848 26.7874 18.2939C26.8513 18.203 26.8831 18.0934 26.8779 17.9824L26.8011 16.313L28.3452 15.8532C28.534 15.7967 28.7098 15.7034 28.8626 15.5789C29.0153 15.4543 29.142 15.3009 29.2355 15.1273C29.3289 14.9537 29.3872 14.7635 29.407 14.5674C29.4269 14.3713 29.4078 14.1732 29.3511 13.9844ZM14.7579 18.8727L13.6576 18.6768L14.472 17.9109L16.7537 17.228L17.0405 18.1862L14.7579 18.8727ZM17.9979 17.9021L17.7111 16.9438L25.7202 14.5474L25.767 15.5771L17.9979 17.9021ZM28.354 14.6506C28.323 14.7085 28.2809 14.7597 28.23 14.8012C28.1791 14.8427 28.1205 14.8737 28.0576 14.8924L26.7552 15.2824L26.7084 14.2527L27.7673 13.935C27.862 13.9068 27.9629 13.9074 28.0574 13.9365C28.1518 13.9656 28.2355 14.0221 28.2979 14.0987C28.3602 14.1753 28.3985 14.2687 28.4079 14.3671C28.4173 14.4655 28.3973 14.5644 28.3505 14.6515L28.354 14.6506Z" fill="#646464"/>
<path d="M19.0862 21H10.5856V13.5C10.5856 13.3673 10.5329 13.2401 10.4391 13.1463C10.3453 13.0524 10.218 12.9997 10.0853 12.9997H1.08623C0.953545 12.9997 0.826294 13.0524 0.73247 13.1463C0.638647 13.2401 0.585938 13.3673 0.585938 13.5V29.5006C0.585938 29.6333 0.638647 29.7605 0.73247 29.8544C0.826294 29.9482 0.953545 30.0009 1.08623 30.0009H19.0862C19.2189 30.0009 19.3462 29.9482 19.44 29.8544C19.5338 29.7605 19.5865 29.6333 19.5865 29.5006V21.5003C19.5865 21.3676 19.5338 21.2404 19.44 21.1466C19.3462 21.0527 19.2189 21 19.0862 21ZM13.5865 21.9997H15.5859V24H13.5856L13.5865 21.9997ZM4.58564 14.0003H6.58594V16.0006H4.58564V14.0003ZM1.58564 14.0003H3.58594V16.5C3.58594 16.6327 3.63865 16.76 3.73247 16.8538C3.82629 16.9476 3.95355 17.0003 4.08623 17.0003H7.08623C7.21892 17.0003 7.34617 16.9476 7.43999 16.8538C7.53382 16.76 7.58653 16.6327 7.58653 16.5V14.0003H9.58594V21H1.58564V14.0003ZM4.58564 22.0006H6.58594V24.0009H4.58564V22.0006ZM1.58564 22.0006H3.58594V24.5003C3.58594 24.633 3.63865 24.7603 3.73247 24.8541C3.82629 24.9479 3.95355 25.0006 4.08623 25.0006H7.08623C7.21892 25.0006 7.34617 24.9479 7.43999 24.8541C7.53382 24.7603 7.58653 24.633 7.58653 24.5003V22.0006H9.58594V29.0003H1.58564V22.0006ZM18.5859 29.0003H10.5856V22.0006H12.5859V24.5003C12.5859 24.633 12.6386 24.7603 12.7325 24.8541C12.8263 24.9479 12.9535 25.0006 13.0862 25.0006H16.0862C16.2189 25.0006 16.3462 24.9479 16.44 24.8541C16.5338 24.7603 16.5865 24.633 16.5865 24.5003V22.0006H18.5859V29.0003Z" fill="#646464"/>
<path d="M16.5859 27H17.5856V27.9997H16.5859V27Z" fill="#646464"/>
<path d="M7.58594 27H8.58564V27.9997H7.58594V27Z" fill="#646464"/>
<path d="M7.58594 19.0006H8.58564V20.0003H7.58594V19.0006Z" fill="#646464"/>
<path d="M8.58653 4.0006C8.58676 3.73545 8.69213 3.48122 8.87954 3.29365C9.06694 3.10607 9.32108 3.00048 9.58623 3.00001H12.5862V4.0006H10.0865C9.95384 4.0006 9.82659 4.05331 9.73276 4.14713C9.63894 4.24095 9.58623 4.36821 9.58623 4.50089V12.0009H10.5859V5.0003H22.5859V13.0006H23.5856V4.50001C23.5856 4.36732 23.5329 4.24007 23.4391 4.14625C23.3453 4.05243 23.218 3.99972 23.0853 3.99972H20.5865V3.00001H23.5865C23.8517 3.00048 24.1058 3.10607 24.2932 3.29365C24.4806 3.48122 24.586 3.73545 24.5862 4.0006V12.5003H25.5859V4.0006C25.5855 3.47038 25.3747 2.96201 24.9999 2.587C24.625 2.212 24.1167 2.00101 23.5865 2.0003H18.7265L19.0715 0.621187C19.0893 0.547702 19.0901 0.471154 19.074 0.397294C19.0579 0.323434 19.0253 0.254182 18.9786 0.194741C18.9319 0.1353 18.8723 0.087215 18.8044 0.0540992C18.7364 0.0209834 18.6618 0.00369739 18.5862 0.00354004H14.5865C14.5109 0.00369739 14.4364 0.0209834 14.3684 0.0540992C14.3004 0.087215 14.2409 0.1353 14.1942 0.194741C14.1475 0.254182 14.1148 0.323434 14.0987 0.397294C14.0826 0.471154 14.0835 0.547702 14.1012 0.621187L14.4462 2.0003H9.58623C9.05586 2.00077 8.54735 2.21167 8.17233 2.58669C7.7973 2.96172 7.5864 3.47023 7.58594 4.0006V12.0009H8.58564L8.58653 4.0006ZM13.5868 3.00089H15.0868C15.1624 3.00074 15.237 2.98345 15.3049 2.95033C15.3729 2.91722 15.4325 2.86913 15.4792 2.80969C15.5259 2.75025 15.5585 2.681 15.5746 2.60714C15.5907 2.53328 15.5898 2.45673 15.5721 2.38325L15.2271 1.00413H17.9465L17.6015 2.38325C17.5838 2.45673 17.5829 2.53328 17.599 2.60714C17.6151 2.681 17.6478 2.75025 17.6945 2.80969C17.7412 2.86913 17.8007 2.91722 17.8687 2.95033C17.9367 2.98345 18.0112 3.00074 18.0868 3.00089H19.5868V4.0006H13.5868V3.00089Z" fill="#646464"/>
<path d="M24.5856 24.5003C24.5852 24.7653 24.4797 25.0193 24.2923 25.2067C24.1049 25.3941 23.8509 25.4995 23.5859 25.5H20.5859V26.4997H23.5859C24.116 26.499 24.6242 26.2881 24.999 25.9133C25.3738 25.5385 25.5846 25.0304 25.5853 24.5003V20.0003H24.5856V24.5003Z" fill="#646464"/>
<path d="M23.5859 24V20.5006H22.5853V23.5006H20.5859V24.5003H23.0856C23.2183 24.5003 23.3456 24.4476 23.4394 24.3538C23.5332 24.26 23.5859 24.1327 23.5859 24Z" fill="#646464"/>
<path d="M14.5868 6.50029C14.5868 6.36761 14.5341 6.24036 14.4403 6.14653C14.3465 6.05271 14.2192 6 14.0865 6H12.0862C11.9535 6 11.8263 6.05271 11.7325 6.14653C11.6386 6.24036 11.5859 6.36761 11.5859 6.50029V8.50059C11.5859 8.63327 11.6386 8.76053 11.7325 8.85435C11.8263 8.94817 11.9535 9.00088 12.0862 9.00088H14.0865C14.2192 9.00088 14.3465 8.94817 14.4403 8.85435C14.5341 8.76053 14.5868 8.63327 14.5868 8.50059V6.50029ZM13.5871 8.00029H12.5865V7.00059H13.5862L13.5871 8.00029Z" fill="#646464"/>
<path d="M14.0865 10.5H12.0862C11.9535 10.5 11.8263 10.5527 11.7325 10.6465C11.6386 10.7404 11.5859 10.8676 11.5859 11.0003V13.0006C11.5859 13.1333 11.6386 13.2605 11.7325 13.3543C11.8263 13.4482 11.9535 13.5009 12.0862 13.5009H14.0865C14.2192 13.5009 14.3465 13.4482 14.4403 13.3543C14.5341 13.2605 14.5868 13.1333 14.5868 13.0006V11.0003C14.5868 10.8676 14.5341 10.7404 14.4403 10.6465C14.3465 10.5527 14.2192 10.5 14.0865 10.5ZM13.5862 12.5003H12.5865V11.5006H13.5862V12.5003Z" fill="#646464"/>
<path d="M15.5859 6H16.5856V7.00059H15.5859V6Z" fill="#646464"/>
<path d="M15.5859 8.00031H21.5859V9.00001H15.5859V8.00031Z" fill="#646464"/>
<path d="M17.5859 6H21.5856V7.00059H17.5859V6Z" fill="#646464"/>
<path d="M15.5859 10.5H16.5856V11.4997H15.5859V10.5Z" fill="#646464"/>
<path d="M15.5859 12.5003H21.5859V13.5H15.5859V12.5003Z" fill="#646464"/>
<path d="M17.5859 10.5H21.5856V11.4997H17.5859V10.5Z" fill="#646464"/>
</g>
<defs>
<clipPath id="clip0_9228_5389">
<rect width="30" height="30" fill="white"/>
</clipPath>
</defs>
</svg>
